{
	"info": {
		"_postman_id": "695113d8-9297-4596-925a-3e5449e04be5",
		"name": "airbnb",
		"schema": "https://schema.getpostman.com/json/collection/v2.1.0/collection.json",
		"_exporter_id": "19907206"
	},
	"item": [
		{
			"name": "listing",
			"item": [
				{
					"name": "get a listing for id",
					"request": {
						"method": "GET",
						"header": [],
						"url": {
							"raw": "http://localhost:8080/airbnb/listing/9035181",
							"protocol": "http",
							"host": [
								"localhost"
							],
							"port": "8080",
							"path": [
								"airbnb",
								"listing",
								"9035181"
							]
						}
					},
					"response": []
				},
				{
					"name": "create a listing",
					"request": {
						"method": "POST",
						"header": [],
						"body": {
							"mode": "raw",
							"raw": "{\n    \"accommodates\": 2,\n    \"amenities\": [\"TV\", \"Internet\"],\n    \"availability365\": 270,\n    \"bathrooms\": 3,\n    \"bedrooms\": 2,\n    \"city\": \"New York\",\n    \"country\": \"United States\",\n    \"latitude\": 34.0275231,\n    \"longitude\": -117.8094451,\n    \"maximumNights\": 20,\n    \"minimumNights\": 3,\n    \"name\": \"Single room for rent Test\",\n    \"neighbourhoodCleansed\": \"Diamond Bar\",\n    \"price\": 45,\n    \"propertyType\": \"House\",\n    \"roomType\": \"Private room\",\n    \"state\": \"CA\"\n}",
							"options": {
								"raw": {
									"language": "json"
								}
							}
						},
						"url": {
							"raw": "http://localhost:8080/airbnb/listing",
							"protocol": "http",
							"host": [
								"localhost"
							],
							"port": "8080",
							"path": [
								"airbnb",
								"listing"
							]
						}
					},
					"response": []
				},
				{
					"name": "update a listing",
					"request": {
						"method": "PUT",
						"header": [],
						"body": {
							"mode": "raw",
							"raw": "{\n    \"accommodates\": 0,\n    \"amenities\": [\n        \"TV, wifi\"\n    ],\n    \"availability365\": 180,\n    \"bathrooms\": 0.0,\n    \"bedrooms\": 0,\n    \"city\": \"Los Angeles\",\n    \"country\": \"United States\",\n    \"latitude\": 33.99593,\n    \"longitude\": -117.95037,\n    \"maximumNights\": 0,\n    \"minimumNights\": 1,\n    \"name\": \"Los Angeles Backpackers Shared Room(C) Updated\",\n    \"neighbourhoodCleansed\": \"Hacienda Heights\",\n    \"price\": 22,\n    \"propertyType\": \"Hostel\",\n    \"roomType\": \"Shared room\",\n    \"state\": \"CA\"\n}",
							"options": {
								"raw": {
									"language": "json"
								}
							}
						},
						"url": {
							"raw": "http://localhost:8080/airbnb/listing/9035181",
							"protocol": "http",
							"host": [
								"localhost"
							],
							"port": "8080",
							"path": [
								"airbnb",
								"listing",
								"9035181"
							]
						}
					},
					"response": []
				},
				{
					"name": "Add a host to Listing",
					"request": {
						"method": "POST",
						"header": [],
						"url": {
							"raw": "http://localhost:8080/airbnb/listing?listingId=9035181&hostId=a6858d90-b15f-4bb4-a131-43c280cedc08",
							"protocol": "http",
							"host": [
								"localhost"
							],
							"port": "8080",
							"path": [
								"airbnb",
								"listing"
							],
							"query": [
								{
									"key": "listingId",
									"value": "9035181"
								},
								{
									"key": "hostId",
									"value": "a6858d90-b15f-4bb4-a131-43c280cedc08"
								}
							]
						}
					},
					"response": []
				},
				{
					"name": "Delete listing",
					"request": {
						"method": "DELETE",
						"header": [],
						"url": {
							"raw": "http://localhost:8080/airbnb/listing/9035181",
							"protocol": "http",
							"host": [
								"localhost"
							],
							"port": "8080",
							"path": [
								"airbnb",
								"listing",
								"9035181"
							]
						}
					},
					"response": []
				}
			]
		},
		{
			"name": "host",
			"item": [
				{
					"name": "Create a host",
					"request": {
						"method": "POST",
						"header": [],
						"body": {
							"mode": "raw",
							"raw": "{\n    \"name\": \"Test host 7\",\n    \"responseRate\": 0.7,\n    \"superHost\": false\n}",
							"options": {
								"raw": {
									"language": "json"
								}
							}
						},
						"url": {
							"raw": "http://localhost:8080/airbnb/host",
							"protocol": "http",
							"host": [
								"localhost"
							],
							"port": "8080",
							"path": [
								"airbnb",
								"host"
							]
						}
					},
					"response": []
				},
				{
					"name": "Update a host",
					"request": {
						"method": "PUT",
						"header": [],
						"body": {
							"mode": "raw",
							"raw": "{\n    \"name\": \"Test host 6 UPDATED\",\n    \"responseRate\": 0.8,\n    \"superHost\": true\n}",
							"options": {
								"raw": {
									"language": "json"
								}
							}
						},
						"url": {
							"raw": "http://localhost:8080/airbnb/host/ae52887f-23be-440c-9365-2a546096199f",
							"protocol": "http",
							"host": [
								"localhost"
							],
							"port": "8080",
							"path": [
								"airbnb",
								"host",
								"ae52887f-23be-440c-9365-2a546096199f"
							]
						}
					},
					"response": []
				},
				{
					"name": "get a host by id",
					"request": {
						"method": "GET",
						"header": [],
						"url": {
							"raw": "http://localhost:8080/airbnb/host/8866c85d-5f0d-4b31-9fe5-c331bb3ee70d",
							"protocol": "http",
							"host": [
								"localhost"
							],
							"port": "8080",
							"path": [
								"airbnb",
								"host",
								"8866c85d-5f0d-4b31-9fe5-c331bb3ee70d"
							]
						}
					},
					"response": []
				},
				{
					"name": "delete host",
					"request": {
						"method": "DELETE",
						"header": [],
						"url": {
							"raw": "http://localhost:8080/airbnb/host/8866c85d-5f0d-4b31-9fe5-c331bb3ee70d",
							"protocol": "http",
							"host": [
								"localhost"
							],
							"port": "8080",
							"path": [
								"airbnb",
								"host",
								"8866c85d-5f0d-4b31-9fe5-c331bb3ee70d"
							]
						}
					},
					"response": []
				}
			]
		},
		{
			"name": "review",
			"item": [
				{
					"name": "Add a review",
					"request": {
						"method": "POST",
						"header": [],
						"body": {
							"mode": "raw",
							"raw": "{\n    \"listingId\": \"9035181\",\n    \"reviewerId\": \"review2\",\n    \"comment\": \"Comment 2\",\n    \"reviewerName\": \"Reviewer2\"\n}",
							"options": {
								"raw": {
									"language": "json"
								}
							}
						},
						"url": {
							"raw": "http://localhost:8080/airbnb/review",
							"protocol": "http",
							"host": [
								"localhost"
							],
							"port": "8080",
							"path": [
								"airbnb",
								"review"
							]
						}
					},
					"response": []
				},
				{
					"name": "Update a comment from a review",
					"request": {
						"method": "PUT",
						"header": [],
						"body": {
							"mode": "raw",
							"raw": "{\n    \"comment\": \"Comment 2 Update\"\n}",
							"options": {
								"raw": {
									"language": "json"
								}
							}
						},
						"url": {
							"raw": "http://localhost:8080/airbnb/review/a7596fdf-e176-4d12-8e58-bd898ae83812",
							"protocol": "http",
							"host": [
								"localhost"
							],
							"port": "8080",
							"path": [
								"airbnb",
								"review",
								"a7596fdf-e176-4d12-8e58-bd898ae83812"
							]
						}
					},
					"response": []
				},
				{
					"name": "Get a review",
					"request": {
						"method": "GET",
						"header": [],
						"url": {
							"raw": "http://localhost:8080/airbnb/review/a7596fdf-e176-4d12-8e58-bd898ae83812",
							"protocol": "http",
							"host": [
								"localhost"
							],
							"port": "8080",
							"path": [
								"airbnb",
								"review",
								"a7596fdf-e176-4d12-8e58-bd898ae83812"
							]
						}
					},
					"response": []
				},
				{
					"name": "Delete review",
					"request": {
						"method": "DELETE",
						"header": [],
						"url": {
							"raw": "http://localhost:8080/airbnb/review/a7596fdf-e176-4d12-8e58-bd898ae83812",
							"protocol": "http",
							"host": [
								"localhost"
							],
							"port": "8080",
							"path": [
								"airbnb",
								"review",
								"a7596fdf-e176-4d12-8e58-bd898ae83812"
							]
						}
					},
					"response": []
				}
			]
		},
		{
			"name": "loader data",
			"item": [
				{
					"name": "Load listing",
					"request": {
						"method": "POST",
						"header": [],
						"body": {
							"mode": "formdata",
							"formdata": [
								{
									"key": "",
									"type": "file",
									"src": "/home/ber_nes/scala/dataset_airbnb/NY_Listings2.csv"
								}
							]
						},
						"url": {
							"raw": "http://localhost:8080/airbnb/load/listing",
							"protocol": "http",
							"host": [
								"localhost"
							],
							"port": "8080",
							"path": [
								"airbnb",
								"load",
								"listing"
							]
						}
					},
					"response": []
				}
			]
		}
	]
}